.................www
.h...............sww
ssssssssssssssss....
we...........s.s....
w............s.s....
w............s.s....
w............s.s....
w............s.s....
w.ssssssssssss.s....
...............s....
...wwwwwww...s.s....
...wwwwwww...s.s....
...wwsssww...s.s....
...wwsssww...s.s....
...wwsssww...s.s....
...wwwwwww...s.s....
...wwwwwww...s.s....
.............s.s....
wwwwwwwwwwwwww...sw.
................sww.
